12 tidy data
…
argumento fill existe tambin en spread() pero ah lo que hace es especificar con cul valor rellenar las celdas que no puedan llenarse con nada. La ventaja de especificarlo es que explicita los missing values implcitos! (resume spread() y despus complete()).

 _____________________________________________________________________________________________________

Estudio de caso

Tuberculosis: de los datos del sistema de salud a la ciencia de datos

Combinemos todo lo que aprendimos para enfrentar un problema real de ordenamiento de datos. El dataset datos::oms contiene datos de tuberculosis (TB) detallados por ao, pas, edad, sexo y mtodo de diagnstico. Los datos provienen del Informe de Tuberculosis de la Organizacin Mundial de la Salud 2014, disponible en http://www.who.int/tb/country/data/download/en/.

Existe abundante informacin epidemiolgica en este dataset, pero es complicado trabajar con estos datos tal como son entregados:

oms

## # A tibble: 7,240 x 60
##    pais  iso2  iso3   anio nuevos_fpp_h014 nuevos_fpp_h1524 nuevos_fpp_h2534
##    <chr> <chr> <chr> <int>           <int>            <int>            <int>
##  1 Afga~ AF    AFG    1980              NA               NA               NA
##  2 Afga~ AF    AFG    1981              NA               NA               NA
##  3 Afga~ AF    AFG    1982              NA               NA               NA
##  4 Afga~ AF    AFG    1983              NA               NA               NA
##  5 Afga~ AF    AFG    1984              NA               NA               NA
##  6 Afga~ AF    AFG    1985              NA               NA               NA
##  7 Afga~ AF    AFG    1986              NA               NA               NA
##  8 Afga~ AF    AFG    1987              NA               NA               NA
##  9 Afga~ AF    AFG    1988              NA               NA               NA
## 10 Afga~ AF    AFG    1989              NA               NA               NA
## # ... with 7,230 more rows, and 53 more variables: nuevos_fpp_h3534 <int>,
## #   nuevos_fpp_h4554 <int>, nuevos_fpp_h5564 <int>, nuevos_fpp_h65 <int>,
## #   nuevos_fpp_m014 <int>, nuevos_fpp_m1524 <int>, nuevos_fpp_m2534 <int>,
## #   nuevos_fpp_m3534 <int>, nuevos_fpp_m4554 <int>, nuevos_fpp_m5564 <int>,
## #   nuevos_fpp_m65 <int>, nuevos_fpn_h014 <int>, nuevos_fpn_h1524 <int>,
## #   nuevos_fpn_h2534 <int>, nuevos_fpn_h3534 <int>, nuevos_fpn_h4554 <int>,
## #   nuevos_fpn_h5564 <int>, nuevos_fpn_h65 <int>, nuevos_fpn_m014 <int>,
## #   nuevos_fpn_m1524 <int>, nuevos_fpn_m2534 <int>, nuevos_fpn_m3534 <int>,
## #   nuevos_fpn_m4554 <int>, nuevos_fpn_m5564 <int>, nuevos_fpn_m65 <int>,
…
pais, iso2 e iso3 parecen variables redundantes para pas.

anio es claramente una variable.

No sabemos an el significado de las otras columnas, pero dada la estructura de los nombres de las variables (e.g. nuevos_fpp_h014, nuevos_ep_h014, nuevos_ep_m014) parecieran ser valores y no variables.

Necesitamos agrupar todas las columnas desde nuevos_fpp_h014 hasta recaidas_m65. No sabemos an qu representa esto, por lo que le daremos el nombre genrico de "clave". Sabemos que las celdas representan la cuenta de casos, por lo que usaremos la variable casos.

Existen mltiples valores faltantes en la representacin actual, por lo que de momento usaremos na.rm para centrarnos en los valores que estn presentes.

oms1 <- oms %>%
  gather(nuevos_fpp_h014:nuevosrecaida_m65, key = "clave", value = "casos", na.rm = TRUE)
oms1

## # A tibble: 76,046 x 6
##    pais       iso2  iso3   anio clave           casos
##    <chr>      <chr> <chr> <int> <chr>           <int>
##  1 Afganistn AF    AFG    1997 nuevos_fpp_h014     0
##  2 Afganistn AF    AFG    1998 nuevos_fpp_h014    30
##  3 Afganistn AF    AFG    1999 nuevos_fpp_h014     8
##  4 Afganistn AF    AFG    2000 nuevos_fpp_h014    52
##  5 Afganistn AF    AFG    2001 nuevos_fpp_h014   129
##  6 Afganistn AF    AFG    2002 nuevos_fpp_h014    90
##  7 Afganistn AF    AFG    2003 nuevos_fpp_h014   127
##  8 Afganistn AF    AFG    2004 nuevos_fpp_h014   139
##  9 Afganistn AF    AFG    2005 nuevos_fpp_h014   151
## 10 Afganistn AF    AFG    2006 nuevos_fpp_h014   193
## # ... with 76,036 more rows

Podemos tener una nocin de la estructura de los valores en la nueva columna clave si hacemos un conteo:

oms1 %>%
  count(clave)

## # A tibble: 56 x 2
##    clave               n
##    <chr>           <int>
##  1 nuevos_ep_h014   1038
##  2 nuevos_ep_h1524  1026
##  3 nuevos_ep_h2534  1020
##  4 nuevos_ep_h3534  1024
##  5 nuevos_ep_h4554  1020
##  6 nuevos_ep_h5564  1015
##  7 nuevos_ep_h65    1018
##  8 nuevos_ep_m014   1032
##  9 nuevos_ep_m1524  1021
## 10 nuevos_ep_m2534  1021
## # ... with 46 more rows
…
3544 = 35  44 aos de edad

4554 = 45  54 aos de edad

5564 = 55  64 aos de edad

65 = 65 o ms aos de edad

Necesitamos hacer un pequeo cambio al formato de los nombres de las columnas: desafortunadamente los nombres de las columnas son ligeramente inconsistentes debido a que en lugar de nuevos_recaida tenemos nuevosrecaida. Aprenders sobre str_replace() en [cadenas de caracteres], pero la idea bsica es bastante simple: reemplazar los caracteres nuevosrecaida por nuevos_recaida. Esto genera nombres de variables consistentes.

oms2 <- oms1 %>%
  mutate(clave = stringr::str_replace(clave, "nuevosrecaida", "nuevos_recaida"))
oms2

## # A tibble: 76,046 x 6
##    pais       iso2  iso3   anio clave           casos
##    <chr>      <chr> <chr> <int> <chr>           <int>
##  1 Afganistn AF    AFG    1997 nuevos_fpp_h014     0
##  2 Afganistn AF    AFG    1998 nuevos_fpp_h014    30
##  3 Afganistn AF    AFG    1999 nuevos_fpp_h014     8
##  4 Afganistn AF    AFG    2000 nuevos_fpp_h014    52
##  5 Afganistn AF    AFG    2001 nuevos_fpp_h014   129
##  6 Afganistn AF    AFG    2002 nuevos_fpp_h014    90
##  7 Afganistn AF    AFG    2003 nuevos_fpp_h014   127
##  8 Afganistn AF    AFG    2004 nuevos_fpp_h014   139
##  9 Afganistn AF    AFG    2005 nuevos_fpp_h014   151
## 10 Afganistn AF    AFG    2006 nuevos_fpp_h014   193
## # ... with 76,036 more rows

Podemos separar los valores en cada cdigo aplicando separate() dos veces. La primera aplicacin dividir los cdigos en cada _.

oms3 <- oms2 %>%
  separate(clave, c("nuevos", "tipo", "sexo_edad"), sep = "_")
oms3

## # A tibble: 76,046 x 8
##    pais       iso2  iso3   anio nuevos tipo  sexo_edad casos
##    <chr>      <chr> <chr> <int> <chr>  <chr> <chr>     <int>
##  1 Afganistn AF    AFG    1997 nuevos fpp   h014          0
##  2 Afganistn AF    AFG    1998 nuevos fpp   h014         30
##  3 Afganistn AF    AFG    1999 nuevos fpp   h014          8
##  4 Afganistn AF    AFG    2000 nuevos fpp   h014         52
##  5 Afganistn AF    AFG    2001 nuevos fpp   h014        129
##  6 Afganistn AF    AFG    2002 nuevos fpp   h014         90
##  7 Afganistn AF    AFG    2003 nuevos fpp   h014        127
##  8 Afganistn AF    AFG    2004 nuevos fpp   h014        139
##  9 Afganistn AF    AFG    2005 nuevos fpp   h014        151
## 10 Afganistn AF    AFG    2006 nuevos fpp   h014        193
## # ... with 76,036 more rows
…
## # A tibble: 1 x 2
##   nuevos     n
##   <chr>  <int>
## 1 nuevos 76046

oms4 <- oms3 %>%
  select(-nuevos, -iso2, -iso3)

Luego separamos sexo_edad en sexo y edad dividiendo luego del primer carcter:

oms5 <- oms4 %>%
  separate(sexo_edad, c("sexo", "edad"), sep = 1)
oms5

## # A tibble: 76,046 x 6
##    pais        anio tipo  sexo  edad  casos
##    <chr>      <int> <chr> <chr> <chr> <int>
##  1 Afganistn  1997 fpp   h     014       0
##  2 Afganistn  1998 fpp   h     014      30
##  3 Afganistn  1999 fpp   h     014       8
##  4 Afganistn  2000 fpp   h     014      52
##  5 Afganistn  2001 fpp   h     014     129
##  6 Afganistn  2002 fpp   h     014      90
##  7 Afganistn  2003 fpp   h     014     127
##  8 Afganistn  2004 fpp   h     014     139
##  9 Afganistn  2005 fpp   h     014     151
## 10 Afganistn  2006 fpp   h     014     193
## # ... with 76,036 more rows
…
